Time Series Analysis – Traffic_Accident
…
2.3 Conventional base ts object versus tibble object

daily_province_ts <- thai_data %>%
  filter(!is.na(Date), !is.na(province_en)) %>%
  count(Date, province_en, name = "Total_Accident") %>%
  as_tsibble(index = Date, key = province_en)
daily_province_ts

# A tsibble: 45,624 x 3 [1D]
# Key:       province_en [78]
   Date       province_en   Total_Accident
   <date>     <chr>                  <int>
 1 2019-01-01 Amnat Charoen              1
 2 2019-01-02 Amnat Charoen              2
 3 2019-01-09 Amnat Charoen              1
 4 2019-01-15 Amnat Charoen              1
 5 2019-01-16 Amnat Charoen              1
 6 2019-02-08 Amnat Charoen              2
 7 2019-02-11 Amnat Charoen              1
 8 2019-02-17 Amnat Charoen              1
 9 2019-02-18 Amnat Charoen              1
10 2019-03-26 Amnat Charoen              2
# ℹ 45,614 more rows
…
